<svg xmlns="http://www.w3.org/2000/svg" viewBox="0 0 31.55 49.18">
  <title>flower</title>
  <path d="M910.55,132.59a4.53,4.53,0,0,0-3.55-4.23v-0.13a4.23,4.23,0,0,0-7.55-2.81,4.35,4.35,0,0,0-6.18-.28,4.4,4.4,0,0,0-1,5.18,4.41,4.41,0,0,0,1.17,7.66,25.05,25.05,0,0,0-3.17,4.32,9.23,9.23,0,0,0-6.15-6.25,0.87,0.87,0,0,0-1,.65v0.08c-0.4,3.06.11,5.47,1.62,7.19a7.24,7.24,0,0,0,3.78,2.31,20.64,20.64,0,0,0-1.21,5.71h-7.66a0.52,0.52,0,0,0-.63.5v7.81a0.66,0.66,0,0,0,.63.69h2.12l1.53,11.27a0.85,0.85,0,0,0,.86.73h14.95a0.85,0.85,0,0,0,.86-0.73L901.46,161h2.32c0.36,0,.22-0.33.22-0.7v-7.81c0-.36.14-0.49-0.22-0.49H889a15.46,15.46,0,0,1,.9-4.46,5.79,5.79,0,0,0,4.56,1.93,12,12,0,0,0,5.21-1.44,0.88,0.88,0,0,0,.34-1.19l0-.08c-1.76-2.51-3.81-3.79-6.11-3.79a6.44,6.44,0,0,0-2.12.38,22.83,22.83,0,0,1,2.43-3.49c0.94,2.57,4.6,3.47,7.41,1.3a4.33,4.33,0,0,0,6.83-4.68A4.33,4.33,0,0,0,910.55,132.59ZM886,142.82a6.68,6.68,0,0,1-1.32-4.71,7,7,0,0,1,4.15,6.35A5.41,5.41,0,0,1,886,142.82Zm8,1.88v0a6.49,6.49,0,0,1,4,2.22,9.6,9.6,0,0,1-3.47.76,4,4,0,0,1-3.63-1.93A6,6,0,0,1,894,144.7Z" transform="translate(-879 -123.82)" style="fill: #1a1a1a"/>
  <path d="M900.44,138.11a4.77,4.77,0,1,1,4.77-4.77A4.77,4.77,0,0,1,900.44,138.11Zm0-7.53a2.77,2.77,0,1,0,2.77,2.77A2.77,2.77,0,0,0,900.44,130.57Z" transform="translate(-879 -123.82)" style="fill: #fff"/>
  <path d="M893.79,170.35a0.9,0.9,0,0,1-.64-1.53l3.76-3.81a0.9,0.9,0,0,1,1.28,1.26l-3.76,3.81A0.9,0.9,0,0,1,893.79,170.35Z" transform="translate(-879 -123.82)" style="fill: #fff"/>
</svg>
