<svg xmlns="http://www.w3.org/2000/svg" viewBox="0 0 41.87 45.94">
  <title>vaccum</title>
  <g>
    <circle cx="16.97" cy="39.99" r="5.66" style="fill: #1a1a1a"/>
    <path d="M893.79,43.21h1.84c-0.55-2.13-1.52-6.94.42-9.82,0.93-1.41,4.22-4.9,8.13-4,5,1.14,8.46,8.83,10.37,22.89,2.39,17.62,5.81,20.33,7.18,20.6a2.73,2.73,0,0,0,2.39-1l-2.5-1.69a1.14,1.14,0,1,1,1.2-1.88l6.6,4.45a1.14,1.14,0,1,1-1.12,2l-0.15-.1L926,73.14a5.45,5.45,0,0,1-3.88,2,3.9,3.9,0,0,1-.9-0.11c-4.07-.94-7-8.3-8.91-22.5C910,35.5,905.91,32.1,903.69,31.63c-2.69-.61-5.22,2.25-5.74,3.05-1.41,2.13-.53,6.64,0,8.56h2.63a5.66,5.66,0,0,1,5.66,5.66h0V60.22a1.2,1.2,0,0,1-1.14,1.14,7.91,7.91,0,0,0-6.85,11.88,1.14,1.14,0,0,1-1,1.7h-8a1.2,1.2,0,0,1-1.14-1.18V48.86A5.66,5.66,0,0,1,893.79,43.21Z" transform="translate(-888.14 -29.24)" style="fill: #1a1a1a"/>
  </g>
  <path d="M890.45,48.79a0.8,0.8,0,0,1-.74-1.1,5.21,5.21,0,0,1,1.75-2.29,5.84,5.84,0,0,1,2.51-.88,0.8,0.8,0,0,1,.17,1.59,4.39,4.39,0,0,0-1.8.63,3.7,3.7,0,0,0-1.14,1.55A0.8,0.8,0,0,1,890.45,48.79Z" transform="translate(-888.14 -29.24)" style="fill: #fff"/>
</svg>
