{
  "score": 15100,
  "promise": {
    "by": {
      "slug": "sylvie",
      "name": "Sylvie"
    },
    "goal": 20000,
    "title": "Week-end à la mer",
    "text": "Merci de votre attention"
  }
}
