<svg xmlns="http://www.w3.org/2000/svg" viewBox="0 0 40.57 65">
  <title>book</title>
  <g>
    <path d="M18.45,9.73L47.35,1.5a1.19,1.19,0,0,1,1.56,1v7.72a1.21,1.21,0,0,1-1.26,1.14Z" transform="translate(-16.39 0)" style="fill: #fff"/>
    <path d="M47.68,12.85h0L18.36,11.18A1.45,1.45,0,0,1,18,8.33L47,0.1a2.8,2.8,0,0,1,2.42.46,2.5,2.5,0,0,1,1,2v7.72a2.52,2.52,0,0,1-.75,1.79A2.78,2.78,0,0,1,47.68,12.85Z" transform="translate(-16.39 0)" style="fill: #1a1a1a"/>
    <polygon points="10.73 8.77 31.09 9.93 31.07 2.98 10.73 8.77" style="fill: #fff"/>
  </g>
  <path d="M53.81,9H17.36a1,1,0,0,0-1,1v51.9A3.16,3.16,0,0,0,19.55,65H53.81A3.16,3.16,0,0,0,57,61.84V12.13A3.16,3.16,0,0,0,53.81,9Z" transform="translate(-16.39 0)" style="fill: #1a1a1a"/>
  <path d="M24.18,19.07a0.87,0.87,0,0,1,0-1.74h12.5a0.87,0.87,0,0,1,0,1.74H24.18Z" transform="translate(-16.39 0)" style="fill: #fff"/>
  <path d="M24.18,24.64a0.87,0.87,0,0,1,0-1.74h7.19a0.87,0.87,0,0,1,0,1.74H24.18Z" transform="translate(-16.39 0)" style="fill: #fff"/>
</svg>
