<svg xmlns="http://www.w3.org/2000/svg" viewBox="0 0 25.73 60.58">
  <title>broom</title>
  <path d="M8.37,39.1L0.1,58.74a1.26,1.26,0,0,0,1.16,1.75l5,0,0-5.6a1.26,1.26,0,1,1,2.52,0l0,5.6H11.6l0.06-16.21a1.26,1.26,0,1,1,2.52,0L14.12,60.54H17l0-5.6a1.26,1.26,0,0,1,2.52,0l0,5.6,5,0a1.27,1.27,0,0,0,.89-0.37A1.18,1.18,0,0,0,25.51,60a1.26,1.26,0,0,0,.12-1.19l-8.12-19.7ZM13.09,0a1.26,1.26,0,0,0-1.27,1.26L11.71,30.34H9.41a1.28,1.28,0,0,0-1,.43,1.27,1.27,0,0,0-.3,1l0.67,4.81,8.26,0,0.71-4.8a1.26,1.26,0,0,0-1.24-1.44H14.24L14.35,1.27A1.26,1.26,0,0,0,13.09,0Z"/>
</svg>
