<svg xmlns="http://www.w3.org/2000/svg" viewBox="0 0 208.5 34.85">
  <title>decouvrir</title>
  <path d="M423,957c-0.74-3.54-.74-7.11-1.66-10.64-0.59-2.29-5.82-2-13.14-1.71q-17.63.78-35.28,1.55c-13.79.61-26.89,0.56-40.83,0.41l-87.44-.88c-7.82.06-17.88-.4-23.43,1.45-4.24,1.39-2.18,4.37-1.95,6,1.06,7.58,0,15.44,4.94,22.93,1,1.37,5.87,2.31,11.23,2.16,7.39-.11,14.87-0.84,22.42-1s15.29-.11,22.91,0c27.72,0.5,54.73,2,82.61,2,20.51,0.05,41-.31,61.29-1.08,1.37-.1,2.34-0.41,2.4-0.78C427.14,970.61,424.47,963.83,423,957Z" transform="translate(-218.62 -944.46)" style="fill: #1a1a1a"/>
  <g>
    <path d="M257,956.82a6.56,6.56,0,0,0-2.83-2,1.72,1.72,0,0,0-.38-0.11l-0.36-.09-0.38-.06-0.33,0c-0.17,0-.58,0-0.7,0h-0.7a0.69,0.69,0,0,0-.34,0,0.74,0.74,0,0,0-.52.27,0.73,0.73,0,0,0-.18.54,77.46,77.46,0,0,1,0,11,0.72,0.72,0,0,0,.18.55,0.75,0.75,0,0,0,.53.27h0.05a0.7,0.7,0,0,0,.53-0.22,7.49,7.49,0,0,0,5.45-1.18,4.36,4.36,0,0,0,1.59-2.33,7.09,7.09,0,0,0,0-3.38A7.67,7.67,0,0,0,257,956.82Zm-5.17-.83a6.36,6.36,0,0,1,1.82.23,5.21,5.21,0,0,1,2.2,1.58,6.16,6.16,0,0,1,1.26,2.51c0.45,1.93.12,3.29-1,4.17a5.93,5.93,0,0,1-4.24.88A80.8,80.8,0,0,0,251.85,956Z" transform="translate(-218.62 -944.46)" style="fill: #fff"/>
    <path d="M265.8,963.7a0.78,0.78,0,0,0-.57,0,0.73,0.73,0,0,0-.45.39,2.71,2.71,0,0,1-.84,1,1.6,1.6,0,0,1-1.93,0,1.86,1.86,0,0,1-.54-0.71,5.25,5.25,0,0,0,2.2-1.12,5.38,5.38,0,0,0,1.6-2.29,3,3,0,0,0,.13-1.86,1.94,1.94,0,0,0-.59-1,1.7,1.7,0,0,0-1.17-.38,2.65,2.65,0,0,0-1.81.8,6.55,6.55,0,0,0-1.3,1.84,7.76,7.76,0,0,0-.7,2,4.63,4.63,0,0,0,0,1.91A3.75,3.75,0,0,0,261,966.2a3,3,0,0,0,1.86.7h0.06a3.22,3.22,0,0,0,1.81-.58,4.17,4.17,0,0,0,1.4-1.63,0.77,0.77,0,0,0,0-.55A0.71,0.71,0,0,0,265.8,963.7Zm-1.93-3.26a4.09,4.09,0,0,1-1.15,1.64,3.66,3.66,0,0,1-1.41.78,6.29,6.29,0,0,1,.59-1.8,4.61,4.61,0,0,1,.91-1.34,1.31,1.31,0,0,1,.84-0.45,0.26,0.26,0,0,1,.3.24A1.53,1.53,0,0,1,263.87,960.44Z" transform="translate(-218.62 -944.46)" style="fill: #fff"/>
    <path d="M263,957.79H263a0.7,0.7,0,0,0,.48-0.18c0.26-.21.55-0.48,0.91-0.84l0.83-.81a0.74,0.74,0,0,0,.23-0.54,0.76,0.76,0,0,0-1.29-.56l-0.84.83q-0.48.48-.79,0.76a0.72,0.72,0,0,0-.27.52A0.75,0.75,0,0,0,263,957.79Z" transform="translate(-218.62 -944.46)" style="fill: #fff"/>
    <path d="M273.19,963.19a0.71,0.71,0,0,0-.57-0.06,0.76,0.76,0,0,0-.45.35,3.88,3.88,0,0,1-1.7,1.85,0.92,0.92,0,0,1-1-.19,2.52,2.52,0,0,1-.6-0.95,4.4,4.4,0,0,1-.27-1.48,5.58,5.58,0,0,1,.28-1.83,3.29,3.29,0,0,1,.56-1.07,1.91,1.91,0,0,1,.71-0.6,0.31,0.31,0,0,1,.31,0,1.65,1.65,0,0,1,.48.94,0.72,0.72,0,0,0,.35.48,0.76,0.76,0,0,0,.57.08,0.72,0.72,0,0,0,.47-0.35,0.74,0.74,0,0,0,.08-0.57A3,3,0,0,0,271.3,958a1.77,1.77,0,0,0-1.76-.16,3.34,3.34,0,0,0-1.29,1,5.15,5.15,0,0,0-.86,1.58,7,7,0,0,0-.24,3.36,4.22,4.22,0,0,0,1.29,2.49,2.4,2.4,0,0,0,1.62.66,2.63,2.63,0,0,0,1-.2,5.25,5.25,0,0,0,2.46-2.51A0.77,0.77,0,0,0,273.19,963.19Z" transform="translate(-218.62 -944.46)" style="fill: #fff"/>
    <path d="M279,958.71a3.67,3.67,0,0,0-2-1,0.85,0.85,0,0,0-.47.1,0.7,0.7,0,0,0-.29.28h0A3.84,3.84,0,0,0,274.7,960a8.13,8.13,0,0,0-.63,2.7,6.36,6.36,0,0,0,.08,1.39,5,5,0,0,0,.41,1.29,2.64,2.64,0,0,0,.9,1.06,2.93,2.93,0,0,0,1.42.48h0.29a3,3,0,0,0,2.53-1.31,4.74,4.74,0,0,0,.82-3,6.48,6.48,0,0,0-.39-2.1A4.89,4.89,0,0,0,279,958.71Zm-2,6.67a1.27,1.27,0,0,1-1.08-.71,3.65,3.65,0,0,1-.32-1.92,6.41,6.41,0,0,1,.5-2.17,2.24,2.24,0,0,1,.88-1.17h0l0.19,0h0.15a2.67,2.67,0,0,1,1.18,1.23,4.64,4.64,0,0,1,.5,2.07,3.44,3.44,0,0,1-.52,2A1.6,1.6,0,0,1,277,965.37Z" transform="translate(-218.62 -944.46)" style="fill: #fff"/>
    <path d="M287.36,961.07l-0.14-1.81a2.53,2.53,0,0,1,0-.35l0-.28,0-.11a0.67,0.67,0,0,0-.12-0.18,0.72,0.72,0,0,0-.66-0.25,0.7,0.7,0,0,0-.51.32,0.48,0.48,0,0,0-.13.25,2.09,2.09,0,0,0,0,.21c0,0.08,0,.21-0.05.42,0,0,0,.17,0,0.44s0,0.51-.06.69a18.41,18.41,0,0,1-.57,3.28,4.68,4.68,0,0,1-.62,1.46,0.57,0.57,0,0,1-.4.32,0.9,0.9,0,0,1-.64-0.66,7,7,0,0,1-.4-2.08,19.82,19.82,0,0,1,.18-4.18v0a0.8,0.8,0,0,0-.15-0.54,0.7,0.7,0,0,0-.5-0.3,0.76,0.76,0,0,0-.55.14,0.74,0.74,0,0,0-.31.51,20.83,20.83,0,0,0-.19,4.49,8.45,8.45,0,0,0,.53,2.56,2.32,2.32,0,0,0,1.84,1.58h0.21a2,2,0,0,0,1.63-1,6,6,0,0,0,.71-1.54c0.11,0.6.23,1.21,0.38,1.81a0.75,0.75,0,0,0,.34.46,0.73,0.73,0,0,0,.57.09,0.74,0.74,0,0,0,.46-0.34,0.73,0.73,0,0,0,.09-0.57A31.46,31.46,0,0,1,287.36,961.07Z" transform="translate(-218.62 -944.46)" style="fill: #fff"/>
    <path d="M295.76,957.8a0.78,0.78,0,0,0-1,.32c-0.16.32-.72,1.75-1.72,4.4-0.31.83-.55,1.46-0.72,1.91l-0.32-1a43.87,43.87,0,0,0-2.1-5.26h0a0.73,0.73,0,0,0-.45-0.36,0.76,0.76,0,0,0-.57,0,0.72,0.72,0,0,0-.37.45,0.8,0.8,0,0,0,0,.57,44.37,44.37,0,0,1,2,5.06l0.91,2.65,0,0.08,0,0.06,0.07,0.09a0.83,0.83,0,0,0,.18.17,0.71,0.71,0,0,0,.41.14,0.83,0.83,0,0,0,.3-0.06,1.11,1.11,0,0,0,.44-0.39,2.27,2.27,0,0,0,.16-0.31c0.11-.2.24-0.49,0.38-0.86l0.94-2.48c1.19-3.17,1.56-4,1.66-4.24a0.79,0.79,0,0,0,0-.56A0.71,0.71,0,0,0,295.76,957.8Z" transform="translate(-218.62 -944.46)" style="fill: #fff"/>
    <path d="M301.65,957.69a0.7,0.7,0,0,0-.56.11,7.91,7.91,0,0,0-2.64,2.93c0-.7,0-1.31-0.1-1.8a0.72,0.72,0,0,0-.26-0.5,0.76,0.76,0,0,0-1.07.09,0.76,0.76,0,0,0-.18.57c0.06,0.54.09,1.25,0.1,2.1q0,1.94,0,2.17c0,0.07,0,.35.08,2,0,0,0,.18,0,0.47a0.9,0.9,0,0,0,0,.25,0.79,0.79,0,0,0,0,.23,0.9,0.9,0,0,0,.19.29,0.75,0.75,0,0,0,.51.22,0.65,0.65,0,0,0,.32-0.09,0.69,0.69,0,0,0,.35-0.3l0-.09a0.93,0.93,0,0,0,0-.13,3.87,3.87,0,0,0,.09-1c0-.3,0-0.51,0-0.59a11.14,11.14,0,0,1,1.17-3.31,6.36,6.36,0,0,1,2.08-2.3,0.74,0.74,0,0,0,.22-1A0.74,0.74,0,0,0,301.65,957.69Z" transform="translate(-218.62 -944.46)" style="fill: #fff"/>
    <path d="M309.24,963.7a0.78,0.78,0,0,0-.57,0,0.73,0.73,0,0,0-.45.39,2.71,2.71,0,0,1-.84,1,1.6,1.6,0,0,1-1.93,0,1.86,1.86,0,0,1-.54-0.71,5.25,5.25,0,0,0,2.2-1.12,5.38,5.38,0,0,0,1.6-2.29,3,3,0,0,0,.13-1.86,1.94,1.94,0,0,0-.59-1,1.59,1.59,0,0,0-1.17-.38,2.65,2.65,0,0,0-1.81.8,6.55,6.55,0,0,0-1.3,1.84,7.76,7.76,0,0,0-.7,2,4.63,4.63,0,0,0,0,1.91,3.75,3.75,0,0,0,1.18,1.88,3,3,0,0,0,1.86.7h0.06a3.22,3.22,0,0,0,1.81-.58,4.16,4.16,0,0,0,1.4-1.63,0.76,0.76,0,0,0,0-.55A0.71,0.71,0,0,0,309.24,963.7Zm-1.93-3.26a4.09,4.09,0,0,1-1.15,1.64,3.66,3.66,0,0,1-1.41.78,6.29,6.29,0,0,1,.59-1.8,4.58,4.58,0,0,1,.91-1.34,1.3,1.3,0,0,1,.84-0.45,0.26,0.26,0,0,1,.3.24A1.53,1.53,0,0,1,307.3,960.44Z" transform="translate(-218.62 -944.46)" style="fill: #fff"/>
    <path d="M315.23,963.31a3.15,3.15,0,0,0-.39-0.61l-0.42-.49c-0.13-.14-0.28-0.29-0.45-0.45l-0.58-.53q-0.46-.43-0.68-0.66a1.51,1.51,0,0,1-.47-0.72,0.45,0.45,0,0,1,.1-0.36,0.77,0.77,0,0,1,.43-0.23,1.11,1.11,0,0,1,.59,0,0.6,0.6,0,0,1,.33.24,1.38,1.38,0,0,1,.1.34l0.11,0.56v0a0.71,0.71,0,0,0,.36.46,0.77,0.77,0,0,0,.57.07,0.72,0.72,0,0,0,.46-0.36,0.77,0.77,0,0,0,.07-0.59,1.83,1.83,0,0,1-.06-0.27c0-.11,0-0.17,0-0.22a2.4,2.4,0,0,0-.26-0.75,1.89,1.89,0,0,0-1.13-.94,2.58,2.58,0,0,0-1.43-.08,2.37,2.37,0,0,0-1.27.74,1.81,1.81,0,0,0-.44,1.47,3,3,0,0,0,.9,1.62l0.71,0.68,0.59,0.54a5.24,5.24,0,0,1,1,1.21,1.16,1.16,0,0,1,.1,1,0.7,0.7,0,0,1-.41.5,1.18,1.18,0,0,1-.79,0A1.62,1.62,0,0,1,312,965a1.61,1.61,0,0,1-.33-1,0.74,0.74,0,0,0-.23-0.53,0.76,0.76,0,0,0-1.29.53,3.07,3.07,0,0,0,.65,2,3.13,3.13,0,0,0,1.58,1.09,2.77,2.77,0,0,0,.83.13,2.65,2.65,0,0,0,1-.21,2.14,2.14,0,0,0,1.25-1.44,3,3,0,0,0,.12-0.77,2.13,2.13,0,0,0-.12-0.75A6.2,6.2,0,0,0,315.23,963.31Z" transform="translate(-218.62 -944.46)" style="fill: #fff"/>
    <path d="M327.2,957.22l-1.65.13c0.08-.75.18-1.46,0.3-2.12a0.72,0.72,0,0,0-.11-0.59,0.76,0.76,0,0,0-.48-0.31,0.74,0.74,0,0,0-.88.59,24.64,24.64,0,0,0-.36,2.51l-1.66.09a0.79,0.79,0,0,0-.53.25,0.71,0.71,0,0,0-.19.55,0.77,0.77,0,0,0,.25.52,0.68,0.68,0,0,0,.54.19l0.38,0,1.1-.05a18.45,18.45,0,0,0,.9,7.79,0.74,0.74,0,0,0,.42.42,0.76,0.76,0,0,0,.57,0,0.71,0.71,0,0,0,.41-0.41,0.78,0.78,0,0,0,0-.56,17.32,17.32,0,0,1-.79-7.33l1.93-.14a0.73,0.73,0,0,0,.51-0.27,0.76,0.76,0,0,0-.09-1.07A0.75,0.75,0,0,0,327.2,957.22Z" transform="translate(-218.62 -944.46)" style="fill: #fff"/>
    <path d="M334.56,959.26a2.68,2.68,0,0,0-2.8-1.62,3.52,3.52,0,0,0-2.5,1.62,0.71,0.71,0,0,0-.12.56,0.78,0.78,0,0,0,.31.48,0.69,0.69,0,0,0,.57.13,0.84,0.84,0,0,0,.49-0.31,2,2,0,0,1,1.41-1,1.28,1.28,0,0,1,1.3.81,5,5,0,0,1,.42,1.26,2.89,2.89,0,0,0-2.23-.86,3.27,3.27,0,0,0-2.31,1.28,3.82,3.82,0,0,0-.66,1.12,4.23,4.23,0,0,0-.28,1.29,2.51,2.51,0,0,0,.31,1.34,2.64,2.64,0,0,0,1.07,1.05,3,3,0,0,0,3.55-.42,7.73,7.73,0,0,0,.59-0.51l0,0.26c0,0.18.06,0.33,0.09,0.44a1.19,1.19,0,0,0,.24.51,0.71,0.71,0,0,0,.53.25,0.71,0.71,0,0,0,.63-0.3,0.84,0.84,0,0,0,.15-0.3,0.69,0.69,0,0,0,0-.17,2.68,2.68,0,0,0,0-.37v-1c0-1.26,0-2.17-.09-2.71A8,8,0,0,0,334.56,959.26Zm-3,2.61a1.76,1.76,0,0,1,1.36.85,2.92,2.92,0,0,1,.38.94,7,7,0,0,1-1.16,1.16,1.62,1.62,0,0,1-1.89.32,1.1,1.1,0,0,1-.6-1,2.2,2.2,0,0,1,.57-1.47,1.77,1.77,0,0,1,1.26-.74h0.07Z" transform="translate(-218.62 -944.46)" style="fill: #fff"/>
    <path d="M347.07,958.17a2,2,0,0,0-1.86-.34,2.9,2.9,0,0,0-1.22.83c0-.08,0-0.17,0-0.25a0.76,0.76,0,0,0-1.28-.56,0.71,0.71,0,0,0-.23.52q0,0.9-.07,2.6t-0.08,2.78c0,0.7,0,1.56,0,2.56s0,1.91.09,2.72a0.76,0.76,0,0,0,.25.51,0.7,0.7,0,0,0,.49.2h0.06a0.78,0.78,0,0,0,.51-0.25,0.72,0.72,0,0,0,.19-0.56c0-.65-0.07-1.35-0.08-2.08a4.15,4.15,0,0,0,2.57-.68,4.48,4.48,0,0,0,1.32-1.63,7,7,0,0,0,.68-2.2,5.88,5.88,0,0,0-.15-2.34A3.25,3.25,0,0,0,347.07,958.17Zm-0.14,3.95a5.5,5.5,0,0,1-.52,1.69,3.06,3.06,0,0,1-.88,1.12,1.94,1.94,0,0,1-.8.34,4.45,4.45,0,0,1-.9,0c0-.89,0-2,0.07-3.45l0-.05a6.58,6.58,0,0,1,.42-1,4.58,4.58,0,0,1,.66-1,1.55,1.55,0,0,1,.68-0.53,0.48,0.48,0,0,1,.48.12,1.89,1.89,0,0,1,.68,1.06A4.15,4.15,0,0,1,346.93,962.11Z" transform="translate(-218.62 -944.46)" style="fill: #fff"/>
    <path d="M354.22,957.69a0.71,0.71,0,0,0-.56.11,7.91,7.91,0,0,0-2.64,2.93c0-.71,0-1.31-0.09-1.8a0.72,0.72,0,0,0-.26-0.5,0.76,0.76,0,0,0-1.07.09,0.76,0.76,0,0,0-.18.57c0.06,0.54.09,1.25,0.1,2.1v0.1c0,1.23,0,1.92,0,2.07s0,0.79.08,2c0,0,0,.18,0,0.47a0.94,0.94,0,0,0,0,.25,0.81,0.81,0,0,0,0,.23,0.9,0.9,0,0,0,.19.29,0.75,0.75,0,0,0,.51.22,0.64,0.64,0,0,0,.32-0.09,0.69,0.69,0,0,0,.36-0.31l0-.09a1,1,0,0,0,0-.13,3.86,3.86,0,0,0,.09-1c0-.3,0-0.51,0-0.59a11.16,11.16,0,0,1,1.17-3.31,6.36,6.36,0,0,1,2.08-2.3,0.74,0.74,0,0,0,.22-1A0.74,0.74,0,0,0,354.22,957.69Z" transform="translate(-218.62 -944.46)" style="fill: #fff"/>
    <path d="M360.51,958.71a3.68,3.68,0,0,0-2-1,0.84,0.84,0,0,0-.47.1,0.7,0.7,0,0,0-.29.28h0a3.84,3.84,0,0,0-1.54,1.91,8.13,8.13,0,0,0-.63,2.7,6.37,6.37,0,0,0,.08,1.39,5,5,0,0,0,.41,1.29,2.63,2.63,0,0,0,.9,1.06,2.93,2.93,0,0,0,1.42.48h0.29a3,3,0,0,0,2.53-1.31,4.74,4.74,0,0,0,.82-3,6.5,6.5,0,0,0-.39-2.1A4.89,4.89,0,0,0,360.51,958.71Zm-2,6.67a1.27,1.27,0,0,1-1.08-.71,3.65,3.65,0,0,1-.32-1.92,6.42,6.42,0,0,1,.5-2.17,2.25,2.25,0,0,1,.88-1.17h0l0.19,0h0.15a2.67,2.67,0,0,1,1.18,1.23,4.64,4.64,0,0,1,.5,2.07,3.44,3.44,0,0,1-.53,2A1.6,1.6,0,0,1,358.51,965.37Z" transform="translate(-218.62 -944.46)" style="fill: #fff"/>
    <path d="M372.67,959.59a2.29,2.29,0,0,0-1.27-1.74,1.84,1.84,0,0,0-1.9.45,6.22,6.22,0,0,0-1.25,1.53c-0.18.28-.35,0.59-0.52,0.92a4.71,4.71,0,0,0-.4-1.2,1.91,1.91,0,0,0-.74-0.79,1.43,1.43,0,0,0-1.2,0,2.32,2.32,0,0,0-1.05,1.09l-0.13.24c0-1,0-1.34,0-1.45a0.74,0.74,0,0,0-.22-0.53,0.76,0.76,0,0,0-1.29.53c0,0.13.08,2.6,0.13,4.06l0.12,3.26a2.09,2.09,0,0,1,0,.21l0,0.23a0.55,0.55,0,0,0,.2.35,0.74,0.74,0,0,0,.77.2,0.76,0.76,0,0,0,.53-0.5,1.11,1.11,0,0,0,0-.35c0-.09,0-0.27,0-0.56a7.27,7.27,0,0,1,0-1.27,10.49,10.49,0,0,1,.64-2.4,11.14,11.14,0,0,1,.56-1.28,3,3,0,0,1,.27-0.4l0.09,0.13a4.93,4.93,0,0,1,.4,1.53,25.94,25.94,0,0,1,.15,2.69,0.3,0.3,0,0,0,0,.09,2.63,2.63,0,0,0,0,.46v0.25l0,0.13a0.58,0.58,0,0,0,.07.15,0.73,0.73,0,0,0,.38.33,0.72,0.72,0,0,0,.79-0.16,0.61,0.61,0,0,0,.2-0.29l0-.14v-0.65a7.38,7.38,0,0,1,.26-1.37,10,10,0,0,1,.48-1.2,13.06,13.06,0,0,1,.76-1.46,5.16,5.16,0,0,1,.92-1.17,0.65,0.65,0,0,1,.39-0.2,1.06,1.06,0,0,1,.37.72,9.1,9.1,0,0,1,.24,2.07c0,0.42,0,1.21,0,2.37,0,1,0,1.55,0,1.83a0.74,0.74,0,0,0,.27.53,0.73,0.73,0,0,0,.48.18h0.07a0.75,0.75,0,0,0,.69-0.81c0-.21,0-0.78,0-1.67,0-1.18,0-2,0-2.46A11.13,11.13,0,0,0,372.67,959.59Z" transform="translate(-218.62 -944.46)" style="fill: #fff"/>
    <path d="M380,963.7a0.78,0.78,0,0,0-.57,0,0.73,0.73,0,0,0-.45.39,2.71,2.71,0,0,1-.84,1,1.6,1.6,0,0,1-1.93,0,1.86,1.86,0,0,1-.54-0.71,5.25,5.25,0,0,0,2.2-1.12,5.38,5.38,0,0,0,1.6-2.29,3,3,0,0,0,.13-1.86,1.94,1.94,0,0,0-.59-1,1.59,1.59,0,0,0-1.17-.38,2.65,2.65,0,0,0-1.81.8,6.53,6.53,0,0,0-1.3,1.84,7.76,7.76,0,0,0-.7,2,4.63,4.63,0,0,0,0,1.91,3.75,3.75,0,0,0,1.18,1.88,3,3,0,0,0,1.86.7h0.06a3.22,3.22,0,0,0,1.81-.58,4.16,4.16,0,0,0,1.4-1.63,0.77,0.77,0,0,0,0-.55A0.71,0.71,0,0,0,380,963.7ZM378,960.44a4.09,4.09,0,0,1-1.15,1.64,3.66,3.66,0,0,1-1.41.78,6.29,6.29,0,0,1,.59-1.8,4.58,4.58,0,0,1,.91-1.34,1.31,1.31,0,0,1,.84-0.45,0.26,0.26,0,0,1,.3.24A1.53,1.53,0,0,1,378,960.44Z" transform="translate(-218.62 -944.46)" style="fill: #fff"/>
    <path d="M386,963.31a3.1,3.1,0,0,0-.39-0.61l-0.42-.49c-0.13-.14-0.28-0.29-0.45-0.45l-0.58-.53q-0.46-.43-0.68-0.66a1.51,1.51,0,0,1-.47-0.72,0.45,0.45,0,0,1,.1-0.36,0.77,0.77,0,0,1,.43-0.23,1.11,1.11,0,0,1,.59,0,0.6,0.6,0,0,1,.33.24,1.38,1.38,0,0,1,.1.34l0.11,0.56v0a0.71,0.71,0,0,0,.36.46,0.77,0.77,0,0,0,.57.07,0.72,0.72,0,0,0,.46-0.36,0.78,0.78,0,0,0,.07-0.59,1.83,1.83,0,0,1-.06-0.27c0-.11,0-0.17,0-0.23a2.36,2.36,0,0,0-.26-0.75,1.89,1.89,0,0,0-1.13-.94,2.58,2.58,0,0,0-1.43-.08,2.37,2.37,0,0,0-1.27.74,1.81,1.81,0,0,0-.44,1.47,3,3,0,0,0,.9,1.62l0.71,0.68,0.59,0.54a5.24,5.24,0,0,1,1,1.21,1.16,1.16,0,0,1,.1,1,0.7,0.7,0,0,1-.41.5,1.17,1.17,0,0,1-.79,0,1.62,1.62,0,0,1-.82-0.58,1.61,1.61,0,0,1-.33-1,0.74,0.74,0,0,0-.23-0.53,0.76,0.76,0,0,0-1.29.53,3.07,3.07,0,0,0,.65,2,3.12,3.12,0,0,0,1.58,1.09,2.76,2.76,0,0,0,.83.13,2.65,2.65,0,0,0,1-.21,2.14,2.14,0,0,0,1.25-1.44,3,3,0,0,0,.12-0.77,2.13,2.13,0,0,0-.12-0.75A6.09,6.09,0,0,0,386,963.31Z" transform="translate(-218.62 -944.46)" style="fill: #fff"/>
    <path d="M392.08,963.31a3.13,3.13,0,0,0-.39-0.61l-0.42-.49c-0.13-.14-0.28-0.29-0.45-0.45l-0.58-.53q-0.46-.43-0.68-0.66a1.5,1.5,0,0,1-.47-0.72,0.45,0.45,0,0,1,.1-0.36,0.77,0.77,0,0,1,.43-0.23,1.11,1.11,0,0,1,.59,0,0.6,0.6,0,0,1,.33.24,1.39,1.39,0,0,1,.1.34l0.11,0.56v0a0.71,0.71,0,0,0,.36.46,0.78,0.78,0,0,0,.57.07,0.72,0.72,0,0,0,.46-0.36,0.78,0.78,0,0,0,.07-0.59,1.74,1.74,0,0,1-.06-0.26c0-.11,0-0.17,0-0.23a2.38,2.38,0,0,0-.26-0.75,1.89,1.89,0,0,0-1.13-.94,2.59,2.59,0,0,0-1.43-.08,2.38,2.38,0,0,0-1.27.74,1.81,1.81,0,0,0-.44,1.47,3,3,0,0,0,.9,1.62l0.71,0.68,0.59,0.54a5.29,5.29,0,0,1,1,1.21,1.17,1.17,0,0,1,.1,1,0.69,0.69,0,0,1-.41.5,1.17,1.17,0,0,1-.79,0,1.62,1.62,0,0,1-.82-0.58,1.61,1.61,0,0,1-.33-1,0.76,0.76,0,0,0-1.51,0,3.07,3.07,0,0,0,.65,2,3.13,3.13,0,0,0,1.58,1.09,2.76,2.76,0,0,0,.83.13,2.65,2.65,0,0,0,1-.21,2.14,2.14,0,0,0,1.25-1.44,3,3,0,0,0,.12-0.77,2.14,2.14,0,0,0-.11-0.76A6.3,6.3,0,0,0,392.08,963.31Z" transform="translate(-218.62 -944.46)" style="fill: #fff"/>
    <path d="M399.83,964.14a0.71,0.71,0,0,0-.38-0.44,0.78,0.78,0,0,0-.57,0,0.73,0.73,0,0,0-.45.39,2.71,2.71,0,0,1-.84,1,1.6,1.6,0,0,1-1.93,0,1.86,1.86,0,0,1-.54-0.71,5.25,5.25,0,0,0,2.2-1.12,5.39,5.39,0,0,0,1.6-2.29,3,3,0,0,0,.13-1.86,1.94,1.94,0,0,0-.59-1,1.59,1.59,0,0,0-1.17-.38,2.65,2.65,0,0,0-1.81.8,6.55,6.55,0,0,0-1.3,1.84,7.75,7.75,0,0,0-.7,2,4.63,4.63,0,0,0,0,1.91,3.75,3.75,0,0,0,1.18,1.88,3,3,0,0,0,1.86.7h0.06a3.22,3.22,0,0,0,1.81-.58,4.16,4.16,0,0,0,1.4-1.63A0.77,0.77,0,0,0,399.83,964.14Zm-2.32-3.7a4.08,4.08,0,0,1-1.15,1.64,3.66,3.66,0,0,1-1.41.78,6.29,6.29,0,0,1,.59-1.8,4.58,4.58,0,0,1,.91-1.34,1.3,1.3,0,0,1,.84-0.45,0.26,0.26,0,0,1,.3.24A1.53,1.53,0,0,1,397.51,960.44Z" transform="translate(-218.62 -944.46)" style="fill: #fff"/>
  </g>
</svg>
