<svg xmlns="http://www.w3.org/2000/svg" viewBox="0 0 54.21 35.18">
  <title>echange_actif</title>
  <g>
    <path d="M168.66,755.37l24.58,0.94a34.88,34.88,0,0,0,7.46-.23c4.14-.74,7.76-1.32,12.4-2.13a0.58,0.58,0,0,1,.58.47,6.18,6.18,0,0,1,.06,1.52c0.2,4,.29,7.5.52,11.22,0.43,7,1,12.65,1,19.3-9.52,1.58-11.32,1-16.72,1.1-10.82.2-21.66-4-32.38-1a1.41,1.41,0,0,1-1.05-.37c-0.85-.56-0.81-0.22-0.85-0.56-1.07-8.15-1.05-17.09-1.44-25.78a24.81,24.81,0,0,1,.17-2.89,1.33,1.33,0,0,1,.68-0.7c1.55-1.32,3.36-.68,5-0.82" transform="translate(-162.18 -752.85)" style="fill: #fff"/>
    <path d="M215.34,765.53c-0.19-3.57-.19-7.17-0.43-10.74-0.15-2.32-1.51-2.06-3.42-1.73-3.06.55-6.12,1.05-9.17,1.59a49,49,0,0,1-10.62.42L169,754.18c-2,.06-4.65-0.4-6.09,1.47-1.1,1.41-.57,4.41-0.51,6,0.28,7.64,0,15.57,1.28,23.13a2.67,2.67,0,0,0,2.92,2.18c1.92-.11,3.87-0.84,5.83-1a42.8,42.8,0,0,1,6,0c7.21,0.5,14.23,2,21.48,2a101.73,101.73,0,0,0,15.93-1.09,0.85,0.85,0,0,0,.62-0.78C216.4,779.25,215.71,772.41,215.34,765.53Zm-39.1,18.75a37.49,37.49,0,0,0-5.62.23c-1.1.14-4.58,1.36-5.35,0.24a14.15,14.15,0,0,1-.15-2.07c-0.13-1-.22-2-0.3-3.06-0.16-2.07-.28-4.14-0.37-6.21-0.19-4.22-.28-8.44-0.47-12.65a11.53,11.53,0,0,1,0-3.5c0.65-2,3.28-1.35,4.92-1.41l20.51,0.8a75.93,75.93,0,0,0,9.9.13c2.66-.24,5.27-0.83,7.89-1.28l4.28-.73c2.22-.38,1.68.77,1.76,2.63,0.15,3.14.24,6.28,0.43,9.42,0.37,6.19.94,12.37,1,18.57a101.15,101.15,0,0,1-14.86.94C191.88,786.38,184.15,784.48,176.23,784.27Z" transform="translate(-162.18 -752.85)" style="fill: #1a1a1a"/>
  </g>
  <g>
    <path d="M180.53,770.57a8.9,8.9,0,0,1,12.76-8l-0.87.19a0.76,0.76,0,0,0,.33,1.48l2.69-.6a0.76,0.76,0,0,0,.55-1l-0.8-2.43a0.75,0.75,0,0,0-.38-0.44,0.73,0.73,0,0,0-.57,0,0.76,0.76,0,0,0-.48,1l0.17,0.5a10.41,10.41,0,0,0-14.09,13.44,0.76,0.76,0,1,0,1.39-.59A8.85,8.85,0,0,1,180.53,770.57Z" transform="translate(-162.18 -752.85)" style="fill: #1a1a1a"/>
    <path d="M198.74,766.43a0.76,0.76,0,1,0-1.39.59,8.91,8.91,0,0,1-8.2,12.37,11,11,0,0,1-4.44-1.15l0.87-.28a0.76,0.76,0,1,0-.47-1.44l-2.63.85a0.76,0.76,0,0,0-.46,1l1,2.35a0.76,0.76,0,0,0,1.39-.61l-0.19-.44a12.43,12.43,0,0,0,4.9,1.21A10.42,10.42,0,0,0,198.74,766.43Z" transform="translate(-162.18 -752.85)" style="fill: #1a1a1a"/>
  </g>
</svg>
