<svg xmlns="http://www.w3.org/2000/svg" viewBox="0 0 43 36.55">
  <title>camera</title>
  <circle cx="21.88" cy="22.49" r="6.48" style="fill: #1a1a1a"/>
  <path d="M40.2,8.44H3.56a2.44,2.44,0,0,0-2.44,2.44V34.11a2.44,2.44,0,0,0,2.44,2.44H40.2a2.44,2.44,0,0,0,2.44-2.44V10.87A2.44,2.44,0,0,0,40.2,8.44ZM21.88,30.9a8.42,8.42,0,1,1,8.42-8.42,8.42,8.42,0,0,1-8.42,8.42h0Z" style="fill: #1a1a1a"/>
  <rect x="0.5" y="7.74" width="42" height="28" rx="3.59" ry="3.59" style="fill: #1a1a1a"/>
  <path d="M43,32.15a4.09,4.09,0,0,1-4.09,4.09H4.09A4.09,4.09,0,0,1,0,32.15V11.32A4.09,4.09,0,0,1,4.09,7.23H38.91A4.09,4.09,0,0,1,43,11.32V32.15ZM42,11.32a3.09,3.09,0,0,0-3.09-3.09H4.09A3.09,3.09,0,0,0,1,11.32H1V32.15a3.09,3.09,0,0,0,3.09,3.09H38.91A3.09,3.09,0,0,0,42,32.15h0V11.32Z" style="fill: #1a1a1a"/>
  <path d="M22,31.78a9.63,9.63,0,1,1,9.63-9.63A9.63,9.63,0,0,1,22,31.78Zm0-17.26a7.63,7.63,0,1,0,7.63,7.63A7.63,7.63,0,0,0,22,14.52h0Z" style="fill: #fff"/>
  <path d="M23.5,27.72a0.9,0.9,0,0,1-.23-1.77,4.3,4.3,0,0,0,1.63-.87,3.59,3.59,0,0,0,.87-1.66,0.9,0.9,0,1,1,1.75.4,5.33,5.33,0,0,1-1.41,2.58,6,6,0,0,1-2.39,1.28Z" style="fill: #fff"/>
  <path d="M27.78,0H15.18A1.88,1.88,0,0,0,13.3,1.87V4.71a0.72,0.72,0,0,0,.72.72H28.94a0.72,0.72,0,0,0,.72-0.72V1.87A1.88,1.88,0,0,0,27.78,0Z" style="fill: #1a1a1a"/>
</svg>
