<svg xmlns="http://www.w3.org/2000/svg" width="31.06" height="36.34" viewBox="0 0 31.06 36.34">
  <title>chrono</title>
  <path style="fill: #1a1a1a;" d="M31,19.24a14.81,14.81,0,0,0-2.54-6.84A15.15,15.15,0,0,0,24,8.22a15.5,15.5,0,0,0-4.33-1.81,12.19,12.19,0,0,0-1.7-.34,8.6,8.6,0,0,0-1.27-.14l-1.06,0-1.07,0a8.6,8.6,0,0,0-1.27.13,11.22,11.22,0,0,0-1.7.34A15.84,15.84,0,0,0,7.21,8.21,15.3,15.3,0,0,0,2.7,12.39,15.06,15.06,0,0,0,.1,19.26a15.5,15.5,0,0,0,1.23,8.06A16.27,16.27,0,0,0,3.66,31,16.47,16.47,0,0,0,7,33.92a16.54,16.54,0,0,0,4.1,1.86,16.89,16.89,0,0,0,4.46.56A16.05,16.05,0,0,0,24,33.67a17.22,17.22,0,0,0,3.27-2.88,17.28,17.28,0,0,0,2.33-3.58,14.91,14.91,0,0,0,1.25-4,14.65,14.65,0,0,0,.22-2C31.07,20.54,31,19.9,31,19.24Z"/>
  <path style="fill: #1a1a1a;" d="M19.83,4.71L19.74,2.5c0-.74-0.13-1.47-0.2-2.21l0-.29L19.24,0a21.45,21.45,0,0,1-3.54.34,32.24,32.24,0,0,0-3.56.07l-0.44,0V0.88a22.13,22.13,0,0,0,.42,4.17V5.11H12.2C12.79,5,13.39,4.95,14,4.9c0.29,0,.58,0,0.87,0s0.55,0,.86,0L17.45,5,19.2,5.21l0.65,0.06Z"/>
  <path style="fill: #fff;" d="M17.27,20.12a2.48,2.48,0,0,0-.32-0.4,2.46,2.46,0,0,0-.71-0.5c0-2,0-3.91.12-5.87,0-.81-1.22-0.81-1.26,0C15,15.26,15,17.17,15,19.08a1.84,1.84,0,0,0-.7.32,1.94,1.94,0,0,0-.65.89,2.1,2.1,0,0,0-.06,1.18,1.92,1.92,0,0,0,.63,1,2.39,2.39,0,0,0,2.14.45,1.91,1.91,0,0,0,.51-0.23L17,22.55l0.19-.19a1.72,1.72,0,0,0,.39-0.9A2,2,0,0,0,17.27,20.12Z"/>
</svg>
