<svg xmlns="http://www.w3.org/2000/svg" viewBox="0 0 44.71 32.13">
  <title>jogging</title>
  <g>
    <path d="M727.18,36.94L715.91,48.18a1.26,1.26,0,0,0-.33.86,1.15,1.15,0,0,0,.36.89l15.29,14.44v0c3.68,3.33,6.47,4.32,9.26,4.32h10.08a1.25,1.25,0,0,0,1.21-1.21V61.89a4,4,0,0,0-2.08-3.23,16.21,16.21,0,0,0-3.59-1.5A29.63,29.63,0,0,1,742.94,56a2.83,2.83,0,0,1-.74-0.45c-0.11-.11-0.08-0.08-0.08-0.1a1.78,1.78,0,0,0,0-.27l-2.42-10.84a1.25,1.25,0,0,0-1.19-.95h-4.85A3.41,3.41,0,0,1,731,41.6a15.45,15.45,0,0,1-1.78-4.14,1.14,1.14,0,0,0-1.14-.87,1.21,1.21,0,0,0-.87.36h0Z" transform="translate(-707.07 -36.59)" style="fill: #1a1a1a"/>
    <path d="M727.54,40A14.14,14.14,0,0,0,729,42.95a5.82,5.82,0,0,0,4.67,2.89h3.86l2.21,9.87h0a2.68,2.68,0,0,0,.71,1.52,4.69,4.69,0,0,0,1.42,1,27.12,27.12,0,0,0,3.49,1.24,16,16,0,0,1,3,1.24,1.42,1.42,0,0,1,.94,1.18v0.81H740.5c-1.9,0-3.16-1.08-5.09-2.79L721.3,46.22Z" transform="translate(-707.07 -36.59)" style="fill: #1a1a1a"/>
    <path d="M719.6,47.9l14.16,13.77c2,1.75,3.88,3.43,6.72,3.43h8.87v1.21H740.5c-2.27,0-4.2-.6-7.61-3.7h0L718.49,49Z" transform="translate(-707.07 -36.59)" style="fill: #fff;stroke: #fff;stroke-linecap: round;stroke-linejoin: round;stroke-width: 0.5px"/>
  </g>
  <path d="M712.66,64.27a0.9,0.9,0,0,1,.63-1.53h9.89a0.9,0.9,0,1,1,0,1.8H713.3A0.9,0.9,0,0,1,712.66,64.27Z" transform="translate(-707.07 -36.59)" style="fill: #1a1a1a"/>
  <path d="M707.33,59.81a0.9,0.9,0,0,1,.63-1.53h9.89a0.9,0.9,0,0,1,0,1.8H708A0.9,0.9,0,0,1,707.33,59.81Z" transform="translate(-707.07 -36.59)" style="fill: #1a1a1a"/>
</svg>
