<svg xmlns="http://www.w3.org/2000/svg" viewBox="0 0 27 27">
  <title>newtask</title>
  <g>
    <path d="M900.79,212H880.08a3.4,3.4,0,0,0-3.08,3v21a3.52,3.52,0,0,0,3.08,3.08H890.8a2.21,2.21,0,0,0,2.2-2.49v-6.66a2.2,2.2,0,0,1,2-1.85h6.66a2.2,2.2,0,0,0,2.38-2.32V215A3.53,3.53,0,0,0,900.79,212Z" transform="translate(-877 -212)"/>
    <path d="M903,230H896.8a1.72,1.72,0,0,0-1.8,1.52v6.57a0.61,0.61,0,0,0,.41.46,0.78,0.78,0,0,0,.24,0,0.55,0.55,0,0,0,.39-0.15l7.34-7.67a0.44,0.44,0,0,0,.1-0.5A0.46,0.46,0,0,0,903,230Z" transform="translate(-877 -212)"/>
  </g>
  <path d="M887.13,218H885v-2.12a1,1,0,0,0-2,0V218h-2.12a1,1,0,0,0,0,2H883v2.13a1,1,0,0,0,2,0V220h2.13A1,1,0,0,0,887.13,218Z" transform="translate(-877 -212)" style="fill: #fff"/>
</svg>
