<svg xmlns="http://www.w3.org/2000/svg" viewBox="0 0 39.74 51.45">
  <title>trophy-3</title>
  <path style="fill: currentColor" d="M95,591.61l-4.76,10.67,7.41-1,4.22,6.16,5-11.26-1.43.48a2.91,2.91,0,0,1-2.68-.53l-1.64-1.46a2.51,2.51,0,0,0-1.16-.48l-2.22-.15a2.91,2.91,0,0,1-2.27-1.52Zm14.51,4.59,5,11.26,4.22-6.16,7.41,1-4.76-10.67-0.46.93a2.91,2.91,0,0,1-2.27,1.52l-2.21.15a2.51,2.51,0,0,0-1.16.48l-1.67,1.47a2.91,2.91,0,0,1-2.68.53Z" transform="translate(-88.25 -556)"/>
  <path style="fill: currentColor" d="M127.91,578.93l-0.72-2.1a3.46,3.46,0,0,1,0-1.89l0.72-2.1a1.92,1.92,0,0,0-.34-1.7l-1.45-1.67a3.46,3.46,0,0,1-.73-1.75l-0.16-2.22a1.92,1.92,0,0,0-1-1.45l-2-1a3.46,3.46,0,0,1-1.31-1.33l-1-2a1.92,1.92,0,0,0-1.45-1l-2.21-.15a3.46,3.46,0,0,1-1.75-.73l-1.66-1.43a1.92,1.92,0,0,0-1.69-.34l-2.1.72a3.46,3.46,0,0,1-1.89,0l-2.1-.72a1.92,1.92,0,0,0-1.7.34l-1.67,1.47a3.46,3.46,0,0,1-1.75.73l-2.22.15a1.92,1.92,0,0,0-1.45,1l-1,2A3.46,3.46,0,0,1,93.95,563l-2,1a1.92,1.92,0,0,0-1,1.45l-0.11,2.2a3.46,3.46,0,0,1-.73,1.75l-1.47,1.66a1.92,1.92,0,0,0-.34,1.7L89,574.94a3.46,3.46,0,0,1,0,1.89l-0.72,2.09a1.92,1.92,0,0,0,.34,1.69l1.47,1.67a3.46,3.46,0,0,1,.73,1.75L91,586.27a1.92,1.92,0,0,0,1,1.45l2,1a3.46,3.46,0,0,1,1.35,1.35l1,2a1.92,1.92,0,0,0,1.45,1L100,593.2a3.46,3.46,0,0,1,1.75.73l1.67,1.47a1.92,1.92,0,0,0,1.7.34l2.06-.77a3.46,3.46,0,0,1,1.89,0l2.09,0.71a1.92,1.92,0,0,0,1.7-.34l1.66-1.45a3.46,3.46,0,0,1,1.75-.73l2.21-.15a1.92,1.92,0,0,0,1.45-1l1-2a3.46,3.46,0,0,1,1.35-1.35l2-1a1.92,1.92,0,0,0,1-1.45l0.15-2.21a3.46,3.46,0,0,1,.69-1.71l1.47-1.67A1.92,1.92,0,0,0,127.91,578.93Zm-11.75-6H116l-1.81,10a32.9,32.9,0,0,0-12,0l-1.81-10h-0.18a1.5,1.5,0,1,1,.62-0.13l4.37,6.11,2.7-9a1.5,1.5,0,1,1,.58,0l2.7,9,4.37-6.11A1.5,1.5,0,1,1,116.16,572.95Z" transform="translate(-88.25 -556)"/>
</svg>
