<svg xmlns="http://www.w3.org/2000/svg" viewBox="0 0 39.9 51.59">
  <title>trophy-generique</title>
  <path d="M388.62,591.92l-4.77,10.71,7.44-1,4.23,6.19,5-11.3-1.43.48a2.92,2.92,0,0,1-2.69-.53L394.75,595a2.52,2.52,0,0,0-1.16-.48l-2.23-.15a2.92,2.92,0,0,1-2.28-1.52Zm14.57,4.6,5,11.3,4.23-6.19,7.44,1-4.77-10.71-0.46.93a2.92,2.92,0,0,1-2.28,1.52l-2.22.15A2.52,2.52,0,0,0,409,595l-1.68,1.47a2.92,2.92,0,0,1-2.69.53Z" transform="translate(-381.91 -556.23)" style="fill: #1a1a1a"/>
  <path d="M421.75,579.24L421,577.18a3.47,3.47,0,0,1,0-1.9l0.72-2.11a1.93,1.93,0,0,0-.34-1.71l-1.47-1.68a3.47,3.47,0,0,1-.73-1.76l-0.15-2.22a1.93,1.93,0,0,0-1-1.45l-2-1A3.47,3.47,0,0,1,414.7,562l-1-2a1.93,1.93,0,0,0-1.45-1l-2.22-.15a3.47,3.47,0,0,1-1.76-.73l-1.62-1.46a1.93,1.93,0,0,0-1.71-.34l-2.06.72a3.47,3.47,0,0,1-1.9,0l-2.11-.72a1.93,1.93,0,0,0-1.71.34l-1.73,1.47a3.47,3.47,0,0,1-1.76.73l-2.22.15a1.93,1.93,0,0,0-1.45,1l-1,2a3.47,3.47,0,0,1-1.33,1.31l-2,1a1.93,1.93,0,0,0-1,1.45l-0.11,2.2a3.47,3.47,0,0,1-.73,1.76l-1.47,1.68a1.93,1.93,0,0,0-.34,1.71l0.72,2.06a3.47,3.47,0,0,1,0,1.9L382,579.24a1.93,1.93,0,0,0,.34,1.71l1.47,1.68a3.47,3.47,0,0,1,.73,1.76l0.15,2.22a1.93,1.93,0,0,0,1,1.45l2,1a3.47,3.47,0,0,1,1.35,1.35l1,2a1.93,1.93,0,0,0,1.45,1l2.22,0.15a3.47,3.47,0,0,1,1.76.73l1.68,1.47a1.93,1.93,0,0,0,1.71.34l2-.78a3.47,3.47,0,0,1,1.9,0l2.11,0.72a1.93,1.93,0,0,0,1.71-.34l1.68-1.47a3.47,3.47,0,0,1,1.76-.73l2.22-.15a1.93,1.93,0,0,0,1.45-1l1-2a3.47,3.47,0,0,1,1.35-1.35l2-1a1.93,1.93,0,0,0,1-1.45l0.15-2.22a3.47,3.47,0,0,1,.73-1.76l1.47-1.68A1.93,1.93,0,0,0,421.75,579.24Zm-19.88,12a15,15,0,1,1,15-15A15,15,0,0,1,401.87,591.2Z" transform="translate(-381.91 -556.23)" style="fill: #1a1a1a"/>
  <polygon points="19.95 25.93 13.53 29.31 14.76 22.14 9.54 17.07 16.74 16.04 19.95 9.51 23.18 16.04 30.37 17.07 25.16 22.14 26.39 29.31 19.95 25.93" style="fill: #1a1a1a"/>
</svg>
