<svg xmlns="http://www.w3.org/2000/svg" viewBox="0 0 38.43 52">
  <title>trophy-1</title>
  <path style="fill: currentColor" d="M164.86,592.93L167.75,608l-10.61-6.6L146.54,608l2.89-15.07a2.47,2.47,0,0,1,.86.41l1.62,1.42a2.82,2.82,0,0,0,2.59.51l2-.69a2.43,2.43,0,0,1,1.21,0h0l2,0.69a2.82,2.82,0,0,0,2.59-.51l1.62-1.42A2.47,2.47,0,0,1,164.86,592.93Z" transform="translate(-137.93 -556)"/>
  <path style="fill: currentColor" d="M176.29,578.17l-0.69-2a3.35,3.35,0,0,1,0-1.83l0.69-2a1.86,1.86,0,0,0-.33-1.65L174.55,569a3.35,3.35,0,0,1-.7-1.7l-0.13-2.19a1.86,1.86,0,0,0-1-1.4l-1.93-1a3.35,3.35,0,0,1-1.3-1.3l-1-1.93a1.86,1.86,0,0,0-1.4-1l-2.14-.14a3.35,3.35,0,0,1-1.7-.7l-1.57-1.36a1.86,1.86,0,0,0-1.65-.33l-2,.69a3.35,3.35,0,0,1-1.83,0l-2-.69a1.86,1.86,0,0,0-1.65.33l-1.67,1.42a3.35,3.35,0,0,1-1.7.7l-2.14.14a1.86,1.86,0,0,0-1.4,1l-1,1.93a3.35,3.35,0,0,1-1.28,1.26l-1.93,1a1.86,1.86,0,0,0-1,1.4l-0.11,2.12a3.35,3.35,0,0,1-.7,1.7l-1.42,1.62a1.86,1.86,0,0,0-.33,1.65l0.69,2a3.35,3.35,0,0,1,0,1.83L138,578.17a1.86,1.86,0,0,0,.33,1.65l1.42,1.62a3.35,3.35,0,0,1,.7,1.7l0.14,2.14a1.86,1.86,0,0,0,1,1.4l1.93,1a3.35,3.35,0,0,1,1.3,1.3l1,1.93a1.86,1.86,0,0,0,1.4,1l2.14,0.14a3.35,3.35,0,0,1,1.7.7l1.62,1.42a1.86,1.86,0,0,0,1.65.33l1.93-.75a3.35,3.35,0,0,1,1.83,0l2,0.69a1.86,1.86,0,0,0,1.65-.33l1.62-1.42a3.35,3.35,0,0,1,1.7-.7l2.14-.14a1.86,1.86,0,0,0,1.4-1l1-1.93a3.35,3.35,0,0,1,1.3-1.3l1.93-1a1.86,1.86,0,0,0,1-1.4l0.14-2.14a3.35,3.35,0,0,1,.7-1.7l1.42-1.62A1.86,1.86,0,0,0,176.29,578.17Z" transform="translate(-137.93 -556)"/>
  <polygon points="21.95 18.54 20.64 21.07 19.42 18.49 16.6 18.02 18.69 16.07 18.25 13.25 20.76 14.63 23.31 13.34 22.77 16.15 24.78 18.18 21.95 18.54" style="fill: #fff"/>
  <path d="M157.14,575.15a0.52,0.52,0,0,0-.75,0l-6.17,6.2a0.52,0.52,0,0,0,0,.75,0.52,0.52,0,0,0,.75,0l6.17-6.2A0.57,0.57,0,0,0,157.14,575.15Z" transform="translate(-137.93 -556)" style="fill: #fff"/>
</svg>
