<svg xmlns="http://www.w3.org/2000/svg" viewBox="0 0 33.37 40.97">
  <title>wv</title>
  <g>
    <path d="M796,52.82H765.61a1.44,1.44,0,0,0-1.45,1.62c0.71,4.82,4.54,8.86,9.81,10.77a2.09,2.09,0,0,0-.21.56l-0.7,3.41a2.1,2.1,0,0,0,2.06,2.51h11.16a2.1,2.1,0,0,0,2-2.69l-1-3.39a2,2,0,0,0-.1-0.22c5.51-1.83,9.56-6,10.29-10.95a1.44,1.44,0,0,0-1.24-1.61H796Z" transform="translate(-764.15 -30.73)" style="fill: #1a1a1a"/>
    <path d="M765.21,49.63H777a1.23,1.23,0,0,0,1.23-1.23v-13a4.7,4.7,0,0,0-4.7-4.7h-3.61a4.7,4.7,0,0,0-4.7,4.7v14.2h0Z" transform="translate(-764.15 -30.73)" style="fill: #1a1a1a"/>
  </g>
  <path d="M772.46,62a0.8,0.8,0,0,1-.3-0.06c-2-.81-4.38-2.74-4.72-5.06a0.8,0.8,0,0,1,.67-0.91,0.81,0.81,0,0,1,.91.67c0.24,1.6,2.1,3.16,3.73,3.81A0.8,0.8,0,0,1,772.46,62Z" transform="translate(-764.15 -30.73)" style="fill: #fff"/>
</svg>
